%YAML 1.1
%TAG !u! tag:unity3d.com,2011:
--- !u!1001 &1941088536642218098
PrefabInstance:
  m_ObjectHideFlags: 0
  serializedVersion: 2
  m_Modification:
    m_TransformParent: {fileID: 0}
    m_Modifications:
    - target: {fileID: 7254289194837127816, guid: f952568660fc33b4daed62d76c139727, type: 3}
      propertyPath: m_RootOrder
      value: 0
      objectReference: {fileID: 0}
    - target: {fileID: 7254289194837127816, guid: f952568660fc33b4daed62d76c139727, type: 3}
      propertyPath: m_LocalPosition.x
      value: 0
      objectReference: {fileID: 0}
    - target: {fileID: 7254289194837127816, guid: f952568660fc33b4daed62d76c139727, type: 3}
      propertyPath: m_LocalPosition.y
      value: 0
      objectReference: {fileID: 0}
    - target: {fileID: 7254289194837127816, guid: f952568660fc33b4daed62d76c139727, type: 3}
      propertyPath: m_LocalPosition.z
      value: 0
      objectReference: {fileID: 0}
    - target: {fileID: 7254289194837127816, guid: f952568660fc33b4daed62d76c139727, type: 3}
      propertyPath: m_LocalRotation.w
      value: 1
      objectReference: {fileID: 0}
    - target: {fileID: 7254289194837127816, guid: f952568660fc33b4daed62d76c139727, type: 3}
      propertyPath: m_LocalRotation.x
      value: 0
      objectReference: {fileID: 0}
    - target: {fileID: 7254289194837127816, guid: f952568660fc33b4daed62d76c139727, type: 3}
      propertyPath: m_LocalRotation.y
      value: 0
      objectReference: {fileID: 0}
    - target: {fileID: 7254289194837127816, guid: f952568660fc33b4daed62d76c139727, type: 3}
      propertyPath: m_LocalRotation.z
      value: 0
      objectReference: {fileID: 0}
    - target: {fileID: 7254289194837127816, guid: f952568660fc33b4daed62d76c139727, type: 3}
      propertyPath: m_LocalEulerAnglesHint.x
      value: 0
      objectReference: {fileID: 0}
    - target: {fileID: 7254289194837127816, guid: f952568660fc33b4daed62d76c139727, type: 3}
      propertyPath: m_LocalEulerAnglesHint.y
      value: 0
      objectReference: {fileID: 0}
    - target: {fileID: 7254289194837127816, guid: f952568660fc33b4daed62d76c139727, type: 3}
      propertyPath: m_LocalEulerAnglesHint.z
      value: 0
      objectReference: {fileID: 0}
    - target: {fileID: 7254289194837127819, guid: f952568660fc33b4daed62d76c139727, type: 3}
      propertyPath: m_Name
      value: Tile_RoadStraight90
      objectReference: {fileID: 0}
    - target: {fileID: 7546922068255690328, guid: f952568660fc33b4daed62d76c139727, type: 3}
      propertyPath: m_LocalRotation.w
      value: 0.7071068
      objectReference: {fileID: 0}
    - target: {fileID: 7546922068255690328, guid: f952568660fc33b4daed62d76c139727, type: 3}
      propertyPath: m_LocalRotation.x
      value: 0
      objectReference: {fileID: 0}
    - target: {fileID: 7546922068255690328, guid: f952568660fc33b4daed62d76c139727, type: 3}
      propertyPath: m_LocalRotation.y
      value: 0.7071068
      objectReference: {fileID: 0}
    - target: {fileID: 7546922068255690328, guid: f952568660fc33b4daed62d76c139727, type: 3}
      propertyPath: m_LocalRotation.z
      value: 0
      objectReference: {fileID: 0}
    - target: {fileID: 7546922068255690328, guid: f952568660fc33b4daed62d76c139727, type: 3}
      propertyPath: m_LocalEulerAnglesHint.y
      value: 90
      objectReference: {fileID: 0}
    m_RemovedComponents: []
  m_SourcePrefab: {fileID: 100100000, guid: f952568660fc33b4daed62d76c139727, type: 3}
