%YAML 1.1
%TAG !u! tag:unity3d.com,2011:
--- !u!1001 &7197533896400706192
PrefabInstance:
  m_ObjectHideFlags: 0
  serializedVersion: 2
  m_Modification:
    m_TransformParent: {fileID: 0}
    m_Modifications:
    - target: {fileID: 5726747763182560216, guid: 401d9a3bf3ee27d49bad25d20b113203, type: 3}
      propertyPath: m_RootOrder
      value: 0
      objectReference: {fileID: 0}
    - target: {fileID: 5726747763182560216, guid: 401d9a3bf3ee27d49bad25d20b113203, type: 3}
      propertyPath: m_LocalPosition.x
      value: 0
      objectReference: {fileID: 0}
    - target: {fileID: 5726747763182560216, guid: 401d9a3bf3ee27d49bad25d20b113203, type: 3}
      propertyPath: m_LocalPosition.y
      value: 0
      objectReference: {fileID: 0}
    - target: {fileID: 5726747763182560216, guid: 401d9a3bf3ee27d49bad25d20b113203, type: 3}
      propertyPath: m_LocalPosition.z
      value: 0
      objectReference: {fileID: 0}
    - target: {fileID: 5726747763182560216, guid: 401d9a3bf3ee27d49bad25d20b113203, type: 3}
      propertyPath: m_LocalRotation.w
      value: 1
      objectReference: {fileID: 0}
    - target: {fileID: 5726747763182560216, guid: 401d9a3bf3ee27d49bad25d20b113203, type: 3}
      propertyPath: m_LocalRotation.x
      value: 0
      objectReference: {fileID: 0}
    - target: {fileID: 5726747763182560216, guid: 401d9a3bf3ee27d49bad25d20b113203, type: 3}
      propertyPath: m_LocalRotation.y
      value: 0
      objectReference: {fileID: 0}
    - target: {fileID: 5726747763182560216, guid: 401d9a3bf3ee27d49bad25d20b113203, type: 3}
      propertyPath: m_LocalRotation.z
      value: 0
      objectReference: {fileID: 0}
    - target: {fileID: 5726747763182560216, guid: 401d9a3bf3ee27d49bad25d20b113203, type: 3}
      propertyPath: m_LocalEulerAnglesHint.x
      value: 0
      objectReference: {fileID: 0}
    - target: {fileID: 5726747763182560216, guid: 401d9a3bf3ee27d49bad25d20b113203, type: 3}
      propertyPath: m_LocalEulerAnglesHint.y
      value: 0
      objectReference: {fileID: 0}
    - target: {fileID: 5726747763182560216, guid: 401d9a3bf3ee27d49bad25d20b113203, type: 3}
      propertyPath: m_LocalEulerAnglesHint.z
      value: 0
      objectReference: {fileID: 0}
    - target: {fileID: 5726747763182560219, guid: 401d9a3bf3ee27d49bad25d20b113203, type: 3}
      propertyPath: m_Name
      value: Tile_RoadCorner
      objectReference: {fileID: 0}
    - target: {fileID: 7763702006647563842, guid: 401d9a3bf3ee27d49bad25d20b113203, type: 3}
      propertyPath: m_Mesh
      value: 
      objectReference: {fileID: -2432090755550338912, guid: 626410dc07212d749823da2540a223bb, type: 3}
    - target: {fileID: 8836604662091940446, guid: 401d9a3bf3ee27d49bad25d20b113203, type: 3}
      propertyPath: isPlaceable
      value: 0
      objectReference: {fileID: 0}
    m_RemovedComponents: []
  m_SourcePrefab: {fileID: 100100000, guid: 401d9a3bf3ee27d49bad25d20b113203, type: 3}
